crid;log2_mean_fold_change;p_corr_fdr_bh;rtmean;z_fid;polarity;sample_group_id
100;2.19e+00;3.81e-02;1.46m;1;+;Con15
147;1.12e+00;3.39e-02;5.55m;1;+;Con15
215;3.15e+00;2.78e-05;4.06m;1;+;Con15
365;2.98e+00;3.57e-03;0.91m;1;+;Con15
142;1.53e+00;4.93e-02;1.24m;1;-;Con15
147;1.12e+00;3.39e-02;5.54m;1;-;Con15
834;1.22e+00;1.74e-02;5.55m;1;-;Con15
851;2.81e+00;6.05e-05;5.58m;1;-;Con15
2086;2.28e+00;1.36e-03;3.26m;1;+;Con15
2087;2.37e+00;3.42e-02;3.27m;1;+;Con15
142;1.53e+00;4.93e-02;1.22m;1;+;Con15
267;1.83e+00;2.94e-03;1.03m;0;+;Con15
709;1.70e+00;3.04e-02;1.07m;1;-;Con15
822;2.48e+00;2.78e-05;5.52m;1;-;Con15
1041;1.50e+00;1.41e-02;1.33m;0;-;Con15
1168;2.04e+00;1.36e-03;0.92m;1;-;Con15
1199;2.07e+00;2.64e-03;1.29m;1;-;Con15
1206;1.43e+00;3.42e-02;2.57m;0;-;Con15
