crid;log2_mean_fold_change;p_corr_fdr_bh;rtmean;z_fid;polarity;sample_group_id
147;2.30E+00;2.19E-04;1.46m;1;+;Con24
215;4.47E+00;7.99E-07;4.06m;1;+;Con24
227;1.10E+00;1.75E-02;3.83m;0;+;Con24
247;2.76E+00;9.07E-03;1.61m;0;+;Con24
282;1.08E+00;1.75E-02;1.05m;1;+;Con24
304;-1.29E+00;3.28E-02;5.54m;1;-;Con24
308;1.44E+00;3.11E-02;2.91m;1;-;Con24
313;1.92E+00;1.74E-02;1.34m;1;-;Con24
320;1.09E+00;4.16E-02;1.07m;0;-;Con24
437;2.89E+00;3.02E-03;6.02m;1;-;Con24
487;1.89E+00;4.48E-02;5.82m;1;-;Con24
490;4.09E+00;1.72E-05;1.77m;1;-;Con24
492;1.44E+00;1.47E-05;0.94m;1;-;Con24
493;3.67E+00;1.14E-04;5.71m;0;-;Con24
495;2.82E+00;7.94E-06;1.47m;0;-;Con24
504;3.26E+00;5.45E-04;8.63m;1;+;Con24
133;1.27E+00;2.53E-02;1.22m;1;+;Con24
286;2.41E+00;3.82E-03;1.00m;1;+;Con24
298;1.36E+00;4.60E-03;0.75m;1;-;Con24
329;5.32E+00;1.65E-06;5.42m;1;-;Con24
600;-1.94E+00;3.19E-04;2.03m;1;-;Con24
601;-1.96E+00;7.33E-03;1.29m;1;-;Con24
641;-1.73E+00;3.75E-04;2.57m;0;-;Con24
642;-1.92E+00;1.07E-02;1.59m;1;-;Con24
661;-1.69E+00;2.07E-03;2.50m;1;-;Con24
715;-2.38E+00;4.43E-02;2.47m;0;-;Con24
816;-1.47E+00;8.52E-03;1.19m;1;-;Con24
828;1.12E+00;7.33E-03;0.28m;0;+;Con24
834;2.33E+00;5.63E-05;;;;
851;1.86E+00;1.46E-04;;;;
865;-1.31E+00;3.26E-03;;;;
890;1.85E+00;2.88E-02;;;;
956;-1.24E+00;3.11E-02;;;;
969;1.66E+00;1.04E-02;;;;
988;-1.71E+00;2.81E-02;;;;
996;-1.54E+00;6.84E-03;;;;
1028;1.55E+00;4.12E-03;;;;
1044;-1.29E+00;1.89E-02;;;;
1048;1.52E+00;4.13E-02;;;;
1086;-2.97E+00;1.04E-03;;;;
1092;-1.12E+00;3.57E-02;;;;
1108;-1.94E+00;1.85E-02;;;;
1116;-1.40E+00;1.77E-03;;;;
1137;-1.07E+00;5.87E-03;;;;
1148;1.75E+00;2.16E-02;;;;
1163;2.25E+00;5.74E-04;;;;
1186;2.65E+00;4.35E-03;;;;
1194;4.96E+00;3.80E-05;;;;
1195;3.23E+00;2.13E-03;;;;
1200;5.25E+00;1.65E-06;;;;
1214;2.12E+00;2.05E-03;;;;
1215;1.40E+00;1.18E-02;;;;
1216;3.03E+00;6.39E-05;;;;
1218;4.07E+00;1.41E-06;;;;
1219;2.64E+00;1.24E-04;;;;
1224;2.66E+00;4.31E-04;;;;
1226;1.76E+00;1.26E-03;;;;
1246;3.12E+00;2.57E-03;;;;
1287;4.77E+00;7.02E-06;;;;
1288;3.89E+00;2.31E-04;;;;
1291;4.74E+00;3.14E-03;;;;
1292;3.81E+00;1.72E-05;;;;
1299;3.08E+00;1.12E-03;;;;
1302;4.71E+00;7.09E-03;;;;
1304;2.71E+00;3.16E-02;;;;
1305;2.83E+00;5.44E-04;;;;
1307;3.03E+00;4.67E-04;;;;
1311;2.51E+00;3.85E-05;;;;
1437;2.16E+00;2.73E-04;;;;
1439;2.53E+00;1.45E-04;;;;
1442;2.30E+00;2.30E-03;;;;
1447;3.03E+00;5.77E-04;;;;
1448;5.88E+00;1.30E-02;;;;
1451;3.45E+00;1.06E-05;;;;
1769;-1.59E+00;7.09E-03;;;;
1857;-1.44E+00;7.33E-03;;;;
1933;-1.44E+00;4.46E-02;;;;
1980;-1.48E+00;1.73E-02;;;;
2006;-1.20E+00;2.23E-02;;;;
2034;1.11E+00;4.22E-02;;;;
2086;4.19E+00;7.31E-06;;;;
2088;-1.01E+00;3.28E-02;;;;
2096;-1.15E+00;7.51E-03;;;;
2129;4.92E+00;1.30E-04;;;;
2137;1.98E+00;4.43E-02;;;;
2141;2.01E+00;2.20E-03;;;;
2143;2.20E+00;3.60E-04;;;;
2162;-1.62E+00;8.04E-03;;;;
2171;-1.41E+00;4.85E-02;;;;
2201;2.55E+00;3.47E-02;;;;
2242;1.68E+00;1.69E-02;;;;
2244;4.19E+00;1.64E-04;;;;
2264;2.91E+00;2.31E-04;;;;
2286;2.39E+00;1.07E-02;;;;
2289;2.83E+00;4.31E-04;;;;
2351;5.17E+00;2.07E-03;;;;
2352;2.40E+00;1.14E-02;;;;
2353;1.49E+00;1.16E-02;;;;
2354;2.01E+00;8.33E-03;;;;
10;1.06E+00;5.25E-03;;;;
28;1.18E+00;1.74E-02;;;;
31;1.02E+00;4.78E-02;;;;
34;1.54E+00;1.02E-03;;;;
38;2.32E+00;5.25E-04;;;;
58;-1.26E+00;2.23E-02;;;;
60;1.47E+00;5.42E-04;;;;
69;1.09E+00;9.73E-03;;;;
81;2.46E+00;4.34E-03;;;;
100;6.82E+00;9.41E-07;;;;
141;1.48E+00;2.37E-03;;;;
142;6.04E+00;5.57E-06;;;;
160;1.58E+00;2.57E-03;;;;
174;1.01E+00;2.48E-02;;;;
182;1.13E+00;7.33E-03;;;;
188;1.06E+00;2.86E-02;;;;
197;1.19E+00;5.87E-03;;;;
204;1.26E+00;3.72E-02;;;;
237;1.23E+00;8.96E-03;;;;
246;1.02E+00;4.43E-02;;;;
272;1.62E+00;2.91E-03;;;;
276;3.79E+00;7.40E-04;;;;
321;3.04E+00;2.05E-03;;;;
333;2.14E+00;4.48E-02;;;;
336;5.22E+00;1.26E-03;;;;
339;3.84E+00;4.85E-03;;;;
349;4.04E+00;2.64E-05;;;;
354;5.47E+00;1.41E-06;;;;
358;3.74E+00;5.45E-04;;;;
365;4.95E+00;3.03E-05;;;;
383;4.62E+00;1.01E-05;;;;
404;3.47E+00;1.55E-04;;;;
409;3.22E+00;5.60E-05;;;;
491;3.69E+00;1.04E-04;;;;
583;-1.17E+00;2.14E-02;;;;
589;1.04E+00;8.77E-03;;;;
613;-1.12E+00;8.62E-04;;;;
624;-1.07E+00;1.65E-03;;;;
627;1.43E+00;3.60E-05;;;;
644;-1.15E+00;2.22E-02;;;;
665;-1.03E+00;7.74E-03;;;;
669;1.27E+00;1.77E-02;;;;
679;1.40E+00;1.63E-02;;;;
709;2.38E+00;2.37E-04;;;;
727;1.08E+00;1.39E-03;;;;
736;-1.30E+00;2.57E-03;;;;
756;-1.06E+00;2.94E-03;;;;
760;2.21E+00;4.12E-03;;;;
774;2.17E+00;2.06E-02;;;;
776;1.11E+00;7.50E-03;;;;
779;2.40E+00;1.02E-03;;;;
783;1.25E+00;3.72E-02;;;;
797;-1.14E+00;2.55E-02;;;;
799;1.42E+00;4.35E-03;;;;
802;1.40E+00;1.36E-02;;;;
822;1.61E+00;8.06E-06;;;;
836;2.77E+00;1.18E-02;;;;
869;1.13E+00;1.09E-02;;;;
899;1.01E+00;6.92E-03;;;;
901;1.19E+00;3.92E-03;;;;
930;1.10E+00;1.11E-02;;;;
937;1.81E+00;2.98E-04;;;;
963;1.13E+00;3.58E-02;;;;
1001;1.40E+00;2.94E-03;;;;
1018;3.84E+00;6.91E-05;;;;
1020;1.24E+00;7.09E-03;;;;
1168;4.40E+00;7.09E-07;;;;
1184;5.32E+00;6.67E-06;;;;
1185;5.55E+00;1.41E-06;;;;
1192;6.17E+00;7.99E-07;;;;
1197;5.07E+00;1.72E-05;;;;
1199;5.36E+00;7.87E-07;;;;
1202;5.28E+00;2.31E-07;;;;
1206;2.57E+00;1.16E-04;;;;
1210;2.82E+00;6.82E-04;;;;
1227;3.05E+00;1.06E-06;;;;
1235;2.20E+00;1.80E-04;;;;
1289;4.11E+00;1.65E-06;;;;
1293;3.88E+00;5.22E-05;;;;
1295;4.05E+00;4.24E-06;;;;
1296;3.78E+00;2.99E-05;;;;
1297;2.96E+00;4.31E-04;;;;
1298;1.99E+00;2.43E-04;;;;
1301;3.12E+00;6.56E-05;;;;
1310;3.38E+00;6.41E-05;;;;
1444;5.32E+00;1.40E-05;;;;
1445;5.02E+00;7.99E-07;;;;
1450;4.20E+00;7.02E-06;;;;
1454;3.42E+00;2.01E-06;;;;
1652;1.44E+00;2.67E-02;;;;
1668;1.51E+00;1.69E-02;;;;
1673;-1.40E+00;1.74E-02;;;;
1751;-1.59E+00;3.85E-02;;;;
1883;-1.05E+00;2.69E-03;;;;
2018;1.74E+00;4.06E-03;;;;
2053;2.44E+00;4.16E-03;;;;
2057;5.88E+00;2.83E-05;;;;
2087;4.81E+00;1.13E-05;;;;
2100;4.60E+00;3.15E-06;;;;
2108;4.53E+00;9.67E-04;;;;
2123;6.02E+00;6.01E-05;;;;
2125;4.68E+00;2.19E-04;;;;
2135;3.21E+00;1.15E-03;;;;
2273;3.05E+00;1.45E-04;;;;
