crid;log2_mean_fold_change;p_corr_fdr_bh;rtmean;z_fid;polarity;sample_group_id
100;3.80e+00;7.55e-04;1.46m;1;+;Con12
147;1.61e+00;3.84e-03;5.55m;1;+;Con12
215;3.76e+00;8.88e-05;4.06m;1;+;Con12
267;1.87e+00;3.84e-03;1.03m;0;+;Con12
409;2.41e+00;1.31e-03;1.14m;0;+;Con12
142;2.91e+00;3.46e-03;1.24m;1;-;Con12
147;1.61e+00;3.84e-03;5.54m;1;-;Con12
329;3.12e+00;3.60e-03;1.00m;1;-;Con12
851;1.53e+00;4.86e-03;5.58m;1;-;Con12
890;1.26e+00;6.22e-03;5.13m;1;-;Con12
1184;3.48e+00;3.94e-02;1.56m;1;-;Con12
1313;3.95e+00;1.11e-02;6.52m;1;-;Con12
2057;2.35e+00;2.45e-02;2.64m;1;+;Con12
2086;2.93e+00;7.55e-04;3.26m;1;+;Con12
2283;2.42e+00;2.66e-02;6.57m;0;+;Con12
141;1.08e+00;3.94e-02;0.85m;1;+;Con12
142;2.91e+00;3.46e-03;1.22m;1;+;Con12
329;3.12e+00;3.60e-03;1.00m;1;+;Con12
365;3.74e+00;3.84e-03;0.91m;1;+;Con12
709;1.81e+00;3.94e-02;1.07m;1;-;Con12
822;1.28e+00;3.84e-03;5.52m;1;-;Con12
2087;3.08e+00;1.03e-02;3.27m;1;+;Con12
2100;2.98e+00;3.46e-03;3.27m;1;+;Con12
2135;2.56e+00;1.92e-02;0.28m;0;+;Con12
2282;3.92e+00;4.86e-03;6.43m;1;+;Con12
