condition	cfu	batch
Col-0	9.070974	A
Col-0	8.499649	A
Col-0	7.588899	A
Col-0	7.89301	A
Col-0	8.081007	A
Col-0	8.128184	A
Col-0	8.37021	A
Col-0	6.83519	A
Col-0	7.940492	A
Col-0	8.39794	A
Col-0	9.613757	A
Col-0	8.85701	A
chitinase	9.658011	A
chitinase	8.241787	A
chitinase	9.964318	A
chitinase	9.262685	A
chitinase	7.987766	A
chitinase	9.829216	A
chitinase	9.681814	A
chitinase	9.360616	A
chitinase	8.508998	A
chitinase	9.388923	A
chitinase	8.900615	A
chitinase	9.963406	A
gstf6	9.388923	A
gstf6	9.412499	A
gstf6	9.170059	A
gstf6	9.115968	A
gstf6	8.09691	A
gstf6	8.679907	A
gstf6	7.66185	A
gstf6	9.577979	A
gstf6	8.924221	A
gstf6	9.090878	A
gstf6	9.78809	A
gstf6	9.509604	A
Col-0	8.778314	C
Col-0	8.345552	C
Col-0	8.568327	C
Col-0	8.605702	C
Col-0	8.298004	C
Col-0	9.40808	C
Col-0	8.549277	C
Col-0	8.731544	C
Col-0	8.421421	C
Col-0	9.025217	C
Col-0	8.10629	C
Col-0	8.576609	C
gstf6	9.533603	C
gstf6	8.411068	C
gstf6	8.525456	C
gstf6	9.170284	C
gstf6	9.262685	C
gstf6	9.401668	C
gstf6	9.8484	C
gstf6	9.415764	C
gstf6	9.652307	C
gstf6	9.35266	C
gstf6	9.53416	C
gstf6	9.886571	C
chitinase	8.629889	C
chitinase	9.200129	C
chitinase	8.781909	C
chitinase	8.965911	C
chitinase	9.736891	C
chitinase	9.45614	C
chitinase	9.226776	C
chitinase	9.021457	C
chitinase	8.475303	C
chitinase	9.925796	C
chitinase	9.284282	C
chitinase	9.107672	C
Col-0	8.98361	D
Col-0	8.090691	D
Col-0	8.597314	D
Col-0	9.091378	D
Col-0	9.555453	D
Col-0	9.460731	D
Col-0	8.48971	D
Col-0	8.872332	D
Col-0	7.741031	D
Col-0	7.9321	D
Col-0	8.143343	D
Col-0	8.218153	D
chitinase	9.553373	D
chitinase	10.12019	D
chitinase	9.852198	D
chitinase	9.332755	D
chitinase	8.63107	D
chitinase	8.497643	D
chitinase	8.600645	D
chitinase	9.733732	D
chitinase	8.966576	D
chitinase	8.623142	D
chitinase	9.124767	D
chitinase	9.251078	D
gstf6	9.050849	D
gstf6	10.24137	D
gstf6	8.576495	D
gstf6	8.906219	D
gstf6	9.514606	D
gstf6	9.029963	D
gstf6	8.98361	D
gstf6	9.248642	D
gstf6	9.348157	D
gstf6	9.469131	D
gstf6	7.957308	D
gstf6	8.302368	D
Col-0	9.1	E
Col-0	8.9	E
Col-0	8.3	E
Col-0	8.9	E
Col-0	8.7	E
Col-0	9	E
Col-0	8.7	E
Col-0	8.5	E
Col-0	8.7	E
Col-0	8.9	E
Col-0	8.5	E
Col-0	8.6	E
gstf6	8.9	E
gstf6	9.2	E
gstf6	9.3	E
gstf6	9.2	E
gstf6	9.7	E
gstf6	9.6	E
gstf6	9.6	E
gstf6	9.2	E
gstf6	9.7	E
gstf6	9.4	E
gstf6	8.6	E
gstf6	7.4	E
chitinase	9.3	E
chitinase	9.4	E
chitinase	9.4	E
chitinase	9.3	E
chitinase	9.6	E
chitinase	9.6	E
chitinase	9.5	E
chitinase	10.2	E
chitinase	9.4	E
chitinase	10.2	E
chitinase	9.3	E
chitinase	9	E
Col-0	7.851018	F
Col-0	7.939434	F
Col-0	8.307763	F
Col-0	7.851492	F
Col-0	7.681509	F
Col-0	7.549277	F
Col-0	7.839786	F
Col-0	7.582464	F
Col-0	7.98634	F
Col-0	7.856047	F
Col-0	8.521643	F
Col-0	7.990092	F
gstf6	8.91364	F
gstf6	9.47478	F
gstf6	8.648561	F
gstf6	8.612428	F
gstf6	8.182208	F
gstf6	8.195407	F
gstf6	8.979062	F
gstf6	8.917792	F
gstf6	8.08715	F
gstf6	8.382789	F
gstf6	8.755316	F
gstf6	8.2593	F
chitinase	7.95778	F
chitinase	8.95651	F
chitinase	8.065761	F
chitinase	8.632706	F
chitinase	9.548096	F
chitinase	8.696116	F
chitinase	8.741952	F
chitinase	9.187601	F
chitinase	8.35527	F
chitinase	8.77949	F
chitinase	8.766613	F
chitinase	8.534746	F
