crid;Col-0_Ax;Col-0_L137;fox1_Ax;fox1_L137;igmt3_Ax;igmt3_L137;bbe6_Ax;bbe6_L137;chx16_Ax;chx16_L137;gstf6_Ax;gstf6_L137;cyp_Ax;cyp_L137;prx71_Ax;prx71_L137
22;0.00;0.00;-0.12;-0.11;0.00;0.11;-0.25;0.07;-0.08;-0.04;-0.06;0.14;-0.09;-0.25;-0.08;-0.37
53;0.00;0.00;-0.13;-0.03;-0.06;-0.18;0.09;0.19;0.06;-0.17;0.06;-0.08;-0.15;-0.16;0.07;-0.22
100;0.00;0.00;-0.12;0.26;-0.19;0.11;0.01;-0.28;0.05;-0.30;0.20;-0.02;-0.03;-0.18;-0.16;-0.59
141;0.00;0.00;0.03;-0.14;0.10;-0.18;0.04;0.16;0.10;-0.06;0.18;-0.14;-0.09;-0.34;0.20;-0.14
142;0.00;0.00;0.57;-0.21;0.51;0.19;0.04;0.01;0.05;-0.12;0.19;0.25;-0.14;-0.83;-0.04;-0.35
157;0.00;0.00;-0.51;-0.06;-0.02;-0.14;-0.31;-0.18;0.09;0.08;0.08;0.11;-0.21;-0.13;0.10;-0.23
174;0.00;0.00;-0.08;-0.07;-0.01;-0.13;0.17;0.22;0.09;-0.20;0.10;-0.09;-0.14;-0.38;0.09;-0.25
197;0.00;0.00;-0.08;-0.13;0.14;-0.02;0.21;0.22;0.07;-0.14;0.21;-0.00;-0.10;-0.34;0.09;-0.21
215;0.00;0.00;0.10;0.27;0.23;0.05;0.27;0.21;-0.02;0.15;0.19;0.23;-0.05;-0.05;0.02;0.09
329;0.00;0.00;-0.04;0.28;-0.13;0.03;-0.01;-0.05;-0.17;-0.02;-0.42;0.07;-0.16;-0.18;-0.24;-0.26
349;0.00;0.00;-0.01;0.38;0.02;-0.05;-0.07;0.23;-0.09;0.09;-0.17;0.06;-0.14;0.07;-0.07;0.30
354;0.00;0.00;1.09;0.38;0.88;0.24;0.17;-0.23;0.12;0.08;0.41;0.14;-0.09;0.00;0.98;-0.22
365;0.00;0.00;-0.13;0.25;-0.35;-0.00;-0.20;-0.24;-0.30;-0.04;-0.19;-0.07;-0.22;-2.98;-0.02;-0.18
380;0.00;0.00;0.21;0.16;0.10;-0.13;0.14;-0.23;0.20;0.04;-0.16;-0.04;0.13;-0.20;0.35;-0.14
383;0.00;0.00;-0.05;0.40;-0.04;0.10;-0.01;-0.21;0.01;-0.03;-0.05;-0.00;-0.08;-0.92;-0.19;-0.16
409;0.00;0.00;0.06;-0.06;0.27;0.06;-0.07;-0.26;-0.07;-0.03;0.14;-0.10;0.19;0.13;0.08;-0.31
492;0.00;0.00;0.02;-0.10;0.02;0.15;-0.15;-0.14;-0.01;-0.25;0.13;0.03;-0.13;-0.43;0.08;-0.52
504;0.00;0.00;0.11;0.13;0.10;-0.06;-0.02;0.29;0.02;0.14;-0.74;0.25;-0.02;-0.14;-0.30;0.40
527;0.00;0.00;0.00;0.01;-0.03;-0.02;0.15;0.33;0.06;-0.05;0.04;-0.01;-0.09;-0.01;0.07;-0.06
558;0.00;0.00;0.17;-0.46;0.23;0.09;0.30;0.10;0.16;-0.20;0.33;0.21;0.04;-0.10;0.02;-0.19
589;0.00;0.00;-0.12;-0.00;0.05;0.15;0.17;0.37;0.06;-0.04;0.04;0.04;-0.13;-0.18;0.01;-0.05
627;0.00;0.00;0.01;-0.17;0.00;-0.01;0.03;-0.20;0.02;-0.26;0.02;0.01;-0.08;-0.15;-0.05;-0.31
645;0.00;0.00;-0.31;-0.38;-0.17;-0.06;0.04;0.25;-0.22;-0.17;-0.17;-0.06;-0.20;-0.22;-0.08;-0.17
709;0.00;0.00;-0.09;-0.12;-0.16;0.16;0.22;0.26;-0.17;-0.12;-0.19;0.01;-0.26;-0.46;-0.07;-0.01
750;0.00;0.00;-0.07;-0.01;0.10;0.13;0.28;0.37;0.08;-0.07;0.18;0.02;-0.14;-0.21;0.13;-0.09
760;0.00;0.00;-0.17;0.04;-0.21;0.13;-0.16;0.21;-0.14;-0.10;-0.05;0.05;-0.22;-0.06;-0.14;-0.18
802;0.00;0.00;-0.05;0.15;-0.13;0.19;-0.03;0.38;-0.13;-0.01;-0.07;0.17;-0.20;0.04;-0.12;-0.11
822;0.00;0.00;0.16;-0.96;-0.02;0.09;0.07;-0.26;0.19;-1.54;-0.06;0.02;0.08;-0.33;0.13;-0.46
834;0.00;0.00;0.22;-0.28;0.08;0.13;0.23;0.19;0.16;-0.94;0.19;0.08;0.21;-0.65;0.35;-0.08
851;0.00;0.00;-0.06;-0.88;-0.01;-0.13;0.09;-0.32;0.14;-1.50;0.15;-0.28;0.10;-0.74;0.16;-0.68
1168;0.00;0.00;-0.02;0.35;0.11;0.12;0.02;-0.07;0.03;-0.01;-0.01;0.00;-0.36;-2.73;-0.18;0.01
1184;0.00;0.00;-0.30;0.27;-0.18;0.23;-0.24;0.19;-0.12;0.10;-0.24;0.13;-0.40;0.29;-0.44;-0.08
1195;0.00;0.00;0.22;-0.32;0.39;-0.36;0.22;-0.92;0.25;-0.70;0.13;-0.49;0.27;-0.43;0.23;-0.60
1199;0.00;0.00;-0.09;0.53;0.13;0.23;0.09;-0.06;0.11;-0.01;0.05;0.08;-0.03;-2.65;0.12;-0.06
1205;0.00;0.00;0.04;0.56;-0.09;0.27;-0.21;-0.06;-0.07;-0.19;-0.23;0.10;-0.00;0.10;-0.18;0.00
1227;0.00;0.00;-0.07;0.33;0.00;0.17;-0.42;-0.01;-0.06;-0.02;-0.10;0.12;-0.19;-0.06;-0.12;0.03
1245;0.00;0.00;0.49;-0.51;0.51;0.14;0.36;-0.24;0.57;-0.30;0.66;0.20;0.20;-0.09;0.39;-0.02
1325;0.00;0.00;-0.09;0.03;-0.04;-0.07;0.13;-0.09;-0.06;-0.14;-0.42;-0.10;-0.14;-0.13;-0.06;0.02
1769;0.00;0.00;-0.21;0.09;0.08;0.03;-0.22;0.19;-0.09;0.02;-0.09;0.07;-0.16;-0.00;-0.17;-0.01
2086;0.00;0.00;-0.34;0.08;0.13;0.17;-0.35;-0.09;-0.16;-0.20;-0.13;-0.16;-0.17;-0.49;-0.06;-0.06
2087;0.00;0.00;0.10;0.30;0.25;0.27;0.17;-0.05;0.06;-0.08;0.29;0.08;-0.13;-2.55;0.13;0.08
2100;0.00;0.00;-0.10;0.39;-0.29;0.45;-0.27;-0.06;-0.25;-0.06;-0.28;0.13;-0.42;-0.30;-0.04;0.15
2135;0.00;0.00;-0.06;0.12;0.04;0.01;-0.27;-0.05;0.11;-0.10;-0.12;-0.16;-0.05;-0.15;0.08;-0.16
